<svg width="8" height="6" viewBox="0 0 8 6" xmlns="http://www.w3.org/2000/svg">
  <path d="M7.27086.82292c-1.2396 2.19792-3.1875 4.10418-3.27084 4.1771-.1875.16666-.47917.16666-.66667 0C3.25 4.9271 1.3021 3.02084.0625.82292-.02083.6771-.02083.5.0625.35417c.08334-.14584.22917-.2396.39584-.25C.47917.09375 2.04168 0 3.66668 0c1.625 0 3.1875.09375 3.20835.10417.16666.0104.3229.10416.39583.25.08333.14583.08333.32292 0 .46875z" fill="#151515" fill-rule="evenodd"/>
</svg>
